Premise;Recommendation;Support (0.6);Confidence (0.7);Lift;Conv
basic computer;basic;0.800;1.000;1.250;200000000.000
basic;basic computer;0.800;1.000;1.250;200000000.000
large;basic;0.600;1.000;1.250;200000000.000
basic;large;0.600;0.750;1.250;1.600
large two;basic;0.600;1.000;1.250;200000000.000
basic;large two;0.600;0.750;1.250;1.600
large;basic computer;0.600;1.000;1.250;200000000.000
basic computer;large;0.600;0.750;1.250;1.600
large two;basic computer;0.600;1.000;1.250;200000000.000
basic computer;large two;0.600;0.750;1.250;1.600
large two;large;0.600;1.000;1.667;400000000.000
large;large two;0.600;1.000;1.667;400000000.000
basic computer, large;basic;0.600;1.000;1.250;200000000.000
basic, large;basic computer;0.600;1.000;1.250;200000000.000
basic, basic computer;large;0.600;0.750;1.250;1.600
large;basic, basic computer;0.600;1.000;1.250;200000000.000
basic computer;basic, large;0.600;0.750;1.250;1.600
basic;basic computer, large;0.600;0.750;1.250;1.600
basic computer, large two;basic;0.600;1.000;1.250;200000000.000
basic, large two;basic computer;0.600;1.000;1.250;200000000.000
basic, basic computer;large two;0.600;0.750;1.250;1.600
large two;basic, basic computer;0.600;1.000;1.250;200000000.000
basic computer;basic, large two;0.600;0.750;1.250;1.600
basic;basic computer, large two;0.600;0.750;1.250;1.600
large, large two;basic;0.600;1.000;1.250;200000000.000
basic, large two;large;0.600;1.000;1.667;400000000.000
basic, large;large two;0.600;1.000;1.667;400000000.000
large two;basic, large;0.600;1.000;1.667;400000000.000
large;basic, large two;0.600;1.000;1.667;400000000.000
basic;large, large two;0.600;0.750;1.250;1.600
large, large two;basic computer;0.600;1.000;1.250;200000000.000
basic computer, large two;large;0.600;1.000;1.667;400000000.000
basic computer, large;large two;0.600;1.000;1.667;400000000.000
large two;basic computer, large;0.600;1.000;1.667;400000000.000
large;basic computer, large two;0.600;1.000;1.667;400000000.000
basic computer;large, large two;0.600;0.750;1.250;1.600
basic computer, large, large two;basic;0.600;1.000;1.250;200000000.000
basic, large, large two;basic computer;0.600;1.000;1.250;200000000.000
basic, basic computer, large two;large;0.600;1.000;1.667;400000000.000
basic, basic computer, large;large two;0.600;1.000;1.667;400000000.000
large, large two;basic, basic computer;0.600;1.000;1.250;200000000.000
basic computer, large two;basic, large;0.600;1.000;1.667;400000000.000
basic computer, large;basic, large two;0.600;1.000;1.667;400000000.000
basic, large two;basic computer, large;0.600;1.000;1.667;400000000.000
basic, large;basic computer, large two;0.600;1.000;1.667;400000000.000
basic, basic computer;large, large two;0.600;0.750;1.250;1.600
large two;basic, basic computer, large;0.600;1.000;1.667;400000000.000
large;basic, basic computer, large two;0.600;1.000;1.667;400000000.000
basic computer;basic, large, large two;0.600;0.750;1.250;1.600
basic;basic computer, large, large two;0.600;0.750;1.250;1.600