ID;Tags
0;basic computer, large two, 
1;basic computer, large two, 
2;basic computer, large two, 
3;basic computer, large two, 
4;basic computer, large two, 
5;basic computer, large two, 
6;basic computer, 
7;basic computer, 
8;, 
9;